==================================================
=                                                =
=                                                =
=        #   #          #      #####  #####      =
=       # # # #        # #      #     #          =
=      #   #   #      #   #      #    #####      =
=     #         #    #######      #   #          =
=    #           #  #       #  #####  #####      =
=                                                =
=    #####      #          #   #      #####      =
=    #         # #        # # # #     #          =
=    # ###    #   #      #   #   #    #####      =
=    #   #   #######    #         #   #          =
=    #####  #       #  #           #  #####      =
=                                                =
=          --------------------------            =
=          - PRESS ANY KEY TO START -            =
=          --------------------------            =
=                                                =
==================================================
